<svg xmlns="http://www.w3.org/2000/svg" xmlns:xlink="http://www.w3.org/1999/xlink" viewBox="0 0 44.985 23.507">
  <defs>
    <style>
      .cls-1 {
        fill: url(#linear-gradient);
      }
    </style>
    <linearGradient id="linear-gradient" x1="0.262" y1="0.803" x2="1" y2="0.5" gradientUnits="objectBoundingBox">
      <stop offset="0" stop-color="#f3993e"/>
      <stop offset="1" stop-color="#fa6e3b"/>
    </linearGradient>
  </defs>
  <path id="Path_902" data-name="Path 902" class="cls-1" d="M44.984,12.178a2.166,2.166,0,0,1-2.171,2.171h0a2.3,2.3,0,0,1-.566-.047c-.189.378-1.038,2.077-4.72,9.2a45.288,45.288,0,0,0-30.115,0l-4.72-9.2a1.936,1.936,0,0,1-.519.047,2.171,2.171,0,1,1,2.171-2.171h0a2.021,2.021,0,0,1-.283,1.038c1.322,1.227,2.879,1.841,4.248,1.18,1.227-.566,1.18-4.343,1.18-5.145A2.762,2.762,0,0,1,6.939,6.278a2.765,2.765,0,0,1,5.523.189,2.6,2.6,0,0,1-.8,1.935h0c.425.661,2.832,4.154,5.475,3.587,3.163-.661,4.437-6.042,4.437-6.042h0a2.8,2.8,0,0,1-2.124-2.832,3.115,3.115,0,1,1,4.107,2.927h0c0,.708,1.369,5.287,4.059,5.995s5.57-3.21,5.806-3.54a2.77,2.77,0,1,1,3.918-.047,2.73,2.73,0,0,1-1.7.8c.047,2.407.094,4.3,1.416,5.287,1.133.85,3.4-.8,3.965-1.274a2.273,2.273,0,0,1-.33-1.133A2.166,2.166,0,0,1,42.86,9.96a2.137,2.137,0,0,1,2.124,2.219Z"/>
</svg>
